   9
sisl-version=1 cell= 4.91362818 0.00000000 0.00000000 -2.45681409 4.25911676 0.00000000 0.00000000 0.00000000 40.51491471  nsc= 1 1 1
C   1.23831368  0.70361482  19.98362821
C   -0.01673608  1.42873043  19.94989790
C   -0.00038771  2.84252589  19.99918347
C   -1.22867066  3.54965480  20.00069473
C   3.68541297  0.70974391  20.00070484
C   2.45825309  1.42028545  20.00006239
C   2.45738793  2.83984831  20.00036761
C   1.22880834  3.55029671  20.00026446
H   0.40776155  1.17868389  21.07165443

