   9
sisl-version=1 cell= 4.91362818 0.00000000 0.00000000 -2.45681409 4.25911676 0.00000000 0.00000000 0.00000000 40.51491471  nsc= 1 1 1
C   1.22840722  0.70984369  20.22208257
C   -0.02352416  1.43330805  19.91201963
C   -0.00640688  2.83585890  19.90824541
C   -1.22840712  3.52192542  19.91197885
C   3.68522124  0.71738691  19.90796033
C   2.48033817  1.43330811  19.91201933
C   2.46322114  2.83585891  19.90824538
C   1.22840690  3.54944725  19.95700348
H   1.22840773  0.70924246  21.36684873

