   9
sisl-version=1 cell= 4.91362818 0.00000000 0.00000000 -2.45681409 4.25911676 0.00000000 0.00000000 0.00000000 40.51491471  nsc= 1 1 1
C   1.24080886  0.70258555  20.06615190
C   -0.01248090  1.42683512  20.06615139
C   -0.00323132  2.85144981  19.91004831
C   -1.22521100  3.53738135  19.91010812
C   3.67347198  0.70681724  19.90998658
C   2.46871624  1.42278869  19.90992592
C   2.46005857  2.83757639  19.93260327
C   1.22521184  3.55118360  19.93260135
H   0.61411609  1.06462812  21.36882702

